<svg width="188" height="188" viewBox="0 0 188 188" xmlns="http://www.w3.org/2000/svg">
    <path fill="currentColor" d="M0 42C0 18.804 18.804 0 42 0H146C169.196 0 188 18.804 188 42V146C188 169.196 169.196 188 146 188H42C18.804 188 0 169.196 0 146V42Z"/>
    <path class="highlight" fill="transparent" fill-rule="evenodd" clip-rule="evenodd" d="M42 6H146C165.882 6 182 22.1178 182 42V146C182 165.882 165.882 182 146 182H42C22.1177 182 6 165.882 6 146V42C6 22.1177 22.1178 6 42 6ZM42 25H146C155.389 25 163 32.6112 163 42V146C163 155.389 155.389 163 146 163H42C32.6112 163 25 155.389 25 146V42C25 32.6112 32.6112 25 42 25Z"/>
</svg>
