<svg width="14" height="14" viewBox="0 0 14 14" xmlns="http://www.w3.org/2000/svg">
    <path fill="currentColor" fill-rule="evenodd" clip-rule="evenodd" d="M4.3 3C4.3 3.71797 3.71797 4.3 3 4.3C2.28203 4.3 1.7 3.71797 1.7 3C1.7 2.28203 2.28203 1.7 3 1.7C3.71797 1.7 4.3 2.28203 4.3 3ZM6 3C6 4.65685 4.65685 6 3 6C1.34315 6 0 4.65685 0 3C0 1.34315 1.34315 0 3 0C4.65685 0 6 1.34315 6 3ZM12.3 3C12.3 3.71797 11.718 4.3 11 4.3C10.282 4.3 9.7 3.71797 9.7 3C9.7 2.28203 10.282 1.7 11 1.7C11.718 1.7 12.3 2.28203 12.3 3ZM14 3C14 4.65685 12.6569 6 11 6C9.34315 6 8 4.65685 8 3C8 1.34315 9.34315 0 11 0C12.6569 0 14 1.34315 14 3ZM3 12.3C3.71797 12.3 4.3 11.718 4.3 11C4.3 10.282 3.71797 9.7 3 9.7C2.28203 9.7 1.7 10.282 1.7 11C1.7 11.718 2.28203 12.3 3 12.3ZM3 14C4.65685 14 6 12.6569 6 11C6 9.34315 4.65685 8 3 8C1.34315 8 0 9.34315 0 11C0 12.6569 1.34315 14 3 14ZM12.3 11C12.3 11.718 11.718 12.3 11 12.3C10.282 12.3 9.7 11.718 9.7 11C9.7 10.282 10.282 9.7 11 9.7C11.718 9.7 12.3 10.282 12.3 11ZM14 11C14 12.6569 12.6569 14 11 14C9.34315 14 8 12.6569 8 11C8 9.34315 9.34315 8 11 8C12.6569 8 14 9.34315 14 11Z"/>
</svg>
