<svg width="62" height="62" viewBox="0 0 62 62" xmlns="http://www.w3.org/2000/svg">
    <path fill="currentColor" d="M48.7579 35.4647C56.0219 35.4647 61.9153 41.3581 61.9153 48.622C61.9153 56.023 56.0219 61.7793 48.7579 61.7793C41.357 61.7793 35.6006 56.023 35.6006 48.622C35.6006 47.7997 35.6006 46.8403 35.8747 45.8809L23.5397 39.7134C21.0727 42.5916 17.5093 44.2362 13.6717 44.2362C6.27074 44.2362 0.514412 38.4799 0.514412 31.0789C0.514412 23.815 6.27074 17.9216 13.6717 17.9216C17.5093 17.9216 21.0727 19.7033 23.5397 22.5815L35.8747 16.414C35.6006 15.4546 35.6006 14.4952 35.6006 13.5358C35.6006 6.27185 41.357 0.378466 48.7579 0.378466C56.0219 0.378466 61.9153 6.27185 61.9153 13.5358C61.9153 20.9368 56.0219 26.6931 48.7579 26.6931C44.7833 26.6931 41.2199 24.9114 38.7529 22.1703L26.4179 28.3378C26.692 29.2972 26.8291 30.2566 26.8291 31.0789C26.8291 32.0383 26.692 32.9977 26.4179 33.9571L38.7529 40.1246C41.2199 37.2464 44.7833 35.4647 48.7579 35.4647ZM48.7579 6.95713C45.0574 6.95713 42.1793 9.97235 42.1793 13.5358C42.1793 17.2363 45.0574 20.1145 48.7579 20.1145C52.3214 20.1145 55.3366 17.2363 55.3366 13.5358C55.3366 9.97235 52.3214 6.95713 48.7579 6.95713ZM13.6717 37.6576C17.2352 37.6576 20.2504 34.7794 20.2504 31.0789C20.2504 27.5155 17.2352 24.5002 13.6717 24.5002C9.97124 24.5002 7.09308 27.5155 7.09308 31.0789C7.09308 34.7794 9.97124 37.6576 13.6717 37.6576ZM48.7579 55.2007C52.3214 55.2007 55.3366 52.3225 55.3366 48.622C55.3366 45.0586 52.3214 42.0433 48.7579 42.0433C45.0574 42.0433 42.1793 45.0586 42.1793 48.622C42.1793 52.3225 45.0574 55.2007 48.7579 55.2007Z"/>
</svg>
