<svg width="64" height="71" viewBox="0 0 64 71" xmlns="http://www.w3.org/2000/svg">
    <path fill="currentColor" d="M54.1875 6.65625C54.1875 9.55449 52.3293 12.0229 49.75 12.9381V15.5312V24.4062C49.75 34.2104 41.8041 42.1562 32 42.1562C22.1959 42.1562 14.25 34.2104 14.25 24.4062V15.5312V12.9381C11.6707 12.0229 9.8125 9.55449 9.8125 6.65625C9.8125 2.98145 12.7939 0 16.4687 0C18.4518 0 20.2406 0.873633 21.4609 2.26035C22.6812 0.873633 24.4701 0 26.4531 0C28.7689 0 30.8074 1.17871 32 2.98145C33.1926 1.17871 35.2311 0 37.5469 0C39.5299 0 41.3187 0.873633 42.5391 2.26035C43.7594 0.873633 45.5482 0 47.5312 0C51.2061 0 54.1875 2.98145 54.1875 6.65625ZM43.0937 24.4062V22.1875H20.9062V24.4062C20.9062 30.5355 25.8707 35.5 32 35.5C38.1293 35.5 43.0937 30.5355 43.0937 24.4062ZM24.4285 60.7383C23.6381 61.0988 23.125 61.8893 23.125 62.7629V64.3438H56.0041C54.9363 60.3361 51.8301 57.1467 47.8502 55.968L43.0937 54.5535V52.5705L41.2771 53.0975L24.4285 60.7383ZM18.6875 62.7629C18.6875 60.1559 20.2129 57.7846 22.5842 56.7029L27.5209 54.4564L20.9062 52.5705V54.5535L16.1498 55.968C12.1838 57.1467 9.07754 60.3361 7.9959 64.3438H18.6875V62.7629ZM0.9375 67.45C0.9375 59.0049 6.55371 51.8771 14.25 49.5891V46.3164C14.25 45.2348 15.1236 44.375 16.1914 44.375C16.3717 44.375 16.552 44.4027 16.7322 44.4443L32 48.8125L47.2678 44.4443C47.448 44.3889 47.6283 44.375 47.8086 44.375C48.8902 44.375 49.75 45.2486 49.75 46.3164V49.5752C57.4463 51.8633 63.0625 59.0049 63.0625 67.4361C63.0625 69.3914 61.4678 70.9861 59.5125 70.9861H4.4875C2.53223 71 0.9375 69.4053 0.9375 67.45ZM38.6562 57.6875C39.2447 57.6875 39.809 57.9213 40.2251 58.3374C40.6412 58.7535 40.875 59.3178 40.875 59.9062C40.875 60.4947 40.6412 61.059 40.2251 61.4751C39.809 61.8912 39.2447 62.125 38.6562 62.125C38.0678 62.125 37.5034 61.8912 37.0874 61.4751C36.6713 61.059 36.4375 60.4947 36.4375 59.9062C36.4375 59.3178 36.6713 58.7535 37.0874 58.3374C37.5034 57.9213 38.0678 57.6875 38.6562 57.6875Z"/>
</svg>
