<svg width="54" height="71" viewBox="0 0 54 71" xmlns="http://www.w3.org/2000/svg">
    <path fill="currentColor" d="M48.7918 0.599135H5.07112C2.46707 0.599135 0.411234 2.79202 0.685345 5.39608L5.07112 62.6853C5.48229 67.3452 9.31984 70.7716 13.8427 70.7716H40.8426C45.5025 70.7716 49.34 67.2081 49.6142 62.5482L53.1776 5.39608C53.4517 2.79202 51.3959 0.599135 48.7918 0.599135ZM43.0355 62.1371C43.0355 63.3706 42.0761 64.1929 40.8426 64.1929H13.8427C12.7462 64.1929 11.7868 63.3706 11.6498 62.2741L8.77162 24.7209H45.3654L43.0355 62.1371ZM45.7766 18.1422H8.2234L7.40106 7.1778H46.4619L45.7766 18.1422Z"/>
</svg>
