<svg width="62" height="71" viewBox="0 0 62 71" xmlns="http://www.w3.org/2000/svg">
    <path fill="currentColor" d="M61.5634 29.2437C61.5634 23.8986 57.7258 19.2387 52.3807 18.4164C50.4619 8.27424 41.5533 0.599135 31 0.599135C20.3097 0.599135 11.4011 8.27424 9.48229 18.4164C4.13712 19.2387 0.299568 23.8986 0.299568 29.2437C0.299568 36.9188 6.87823 40.0711 11.127 40.0711H11.264L24.0102 66.5228C25.2437 69.1269 27.9848 70.7716 31 70.7716C33.8782 70.7716 36.4822 68.9898 37.8528 66.3858L50.5989 40.0711H50.736C54.8477 40.0711 61.5634 36.9188 61.5634 29.2437ZM31.9594 63.6447C31.6853 64.1929 31.2741 64.467 31 64.467C30.5888 64.467 30.1777 64.1929 29.9036 63.6447L18.665 40.0711H43.1979L31.9594 63.6447ZM50.736 33.4925H11.127C8.79701 33.4925 6.74118 31.5737 6.74118 29.1067C6.74118 27.0508 8.38584 25.2691 10.4417 24.858L14.9645 24.1727L15.9239 19.6499C17.2945 12.3859 23.599 7.1778 31 7.1778C38.2639 7.1778 44.5685 12.3859 45.9391 19.6499L46.8984 24.1727L51.4213 24.858C53.4771 25.2691 55.1218 27.0508 55.1218 29.1067C55.1218 31.5737 53.0659 33.4925 50.736 33.4925Z"/>
</svg>
