<svg width="62" height="72" viewBox="0 0 62 72" xmlns="http://www.w3.org/2000/svg">
    <path fill="currentColor" d="M41.6903 42.9252L35.5228 55.3972L33.1929 46.8998L37.5787 40.3211H24.4213L28.8071 46.8998L26.3401 55.3972L20.1726 42.9252C8.79701 44.981 0.299568 54.849 0.299568 66.6358C0.299568 69.1028 2.21835 71.0216 4.68534 71.0216H57.3147C59.6446 71.0216 61.7004 69.1028 61.7004 66.6358C61.7004 54.849 53.0659 44.981 41.6903 42.9252ZM6.87823 64.4429C7.70057 58.5495 11.4011 53.4784 16.7462 50.8744L23.599 64.4429H6.87823ZM38.2639 64.4429L45.1167 50.8744C50.4619 53.4784 54.1624 58.5495 54.9847 64.4429H38.2639ZM31 35.9353C40.5939 35.9353 48.5431 28.1232 48.5431 18.3922C48.5431 8.79835 40.5939 0.849135 31 0.849135C21.2691 0.849135 13.4569 8.79835 13.4569 18.3922C13.4569 28.1232 21.2691 35.9353 31 35.9353ZM31 7.4278C37.0304 7.4278 41.9644 12.3618 41.9644 18.3922C41.9644 24.5597 37.0304 29.3567 31 29.3567C24.8325 29.3567 20.0356 24.5597 20.0356 18.3922C20.0356 12.3618 24.8325 7.4278 31 7.4278Z"/>
</svg>
